simavr_trace.vcd
$timescale 10ns $end
$scope module logic $end
$var wire 1 ! PIN13 $end
$var wire 1 " PIN7 $end
$upscope $end
$enddefinitions $end
$dumpvars
x!
x"
$end
#400
0!
#401
1!
#543
0!
#26001487
0"
#26001488
1"
#27537887
0"
#52001887
1"
#53538287
0"
#78002287
1"
#79538687
0"
#104002687
1"
#105539087
0"
#130003087
1"
#131539487
0"
#156003487
1"
#157539887
0"
#182003887
1"
#183540287
0"
#208004287
1"
#209540687
0"
#234004687
1"
#235541087
0"
#260005087
1"
#261541487
0"
#286005487
1"
#287541887
0"
#312005887
1"
#312006643
1!
#313542287
0"
#315078981
0!
#338006237
1!
#338006468
1"
#339543131
0"
#341078575
0!
#364006643
1!
#364006875
1"
#365543537
0"
#367078981
0!
#390007037
1!
#390007268
1"
#391543931
0"
#393079375
0!
#416007443
1!
#416007675
1"
#417544337
0"
#419079781
0!
#442007837
1!
#442008087
1"
#443544725
0"
#445080181
0!
#468008281
1"
#469544681
0"
#494008681
1"
#495545081
0"
#520009081
1"
#521545481
0"
#546009481
1"
#547545881
0"
#572009881
1"
#573546281
0"
#598010281
1"
#599546681
0"
#624010681
1"
#624011437
1!
#625547081
0"
#627083775
0!
#650011043
1!
#650011275
1"
#651547937
0"
#653083381
0!
#676011437
1!
#676011668
1"
#677548331
0"
#679083775
0!
#702011843
1!
#702012075
1"
#703548737
0"
#705084181
0!
#728012237
1!
#728012468
1"
#729549131
0"
#731084575
0!
#754012643
1!
#754012893
1"
#755549531
0"
#757084987
0!
#780013087
1"
#781549487
0"
#806013487
1"
#807549887
0"
#832013887
1"
#833550287
0"
#858014287
1"
#859550687
0"
#884014687
1"
#885551087
0"
#910015087
1"
#911551487
0"
#936015487
1"
#936016243
1!
#937551887
0"
#939088581
0!
#962015837
1!
#962016068
1"
#963552731
0"
#965088175
0!
#988016243
1!
#988016475
1"
#989553137
0"
#991088581
0!
#1014016637
1!
#1014016868
1"
#1015553531
0"
#1017088975
0!
#1040017043
1!
#1040017275
1"
#1041553937
0"
#1043089381
0!
#1066017437
1!
#1066017687
1"
#1067554325
0"
#1069089781
0!
#1092017881
1"
#1093554281
0"
#1118018281
1"
#1119554681
0"
#1144018681
1"
#1145555081
0"
#1170019081
1"
#1171555481
0"
#1196019481
1"
#1197555881
0"
#1222019881
1"
#1223556281
0"
#1248020281
1"
#1248021037
1!
#1249556681
0"
#1251093375
0!
#1274020643
1!
#1274020875
1"
#1275557537
0"
#1277092981
0!
#1300021037
1!
#1300021268
1"
#1301557931
0"
#1303093375
0!
#1326021443
1!
#1326021675
1"
#1327558337
0"
#1329093781
0!
#1352021837
1!
#1352022068
1"
#1353558731
0"
#1355094175
0!
#1378022243
1!
#1378022493
1"
#1379559131
0"
#1381094587
0!
#1404022687
1"
#1405559087
0"
#1430023087
1"
#1431559487
0"
#1456023487
1"
#1457559887
0"
#1482023887
1"
#1483560287
0"
#1508024287
1"
#1509560687
0"
#1534024687
1"
#1535561087
0"
#1560025087
1"
#1560025843
1!
#1561561487
0"
#1563098181
0!
#1586025437
1!
#1586025668
1"
#1587562331
0"
#1589097775
0!
#1612025843
1!
#1612026075
1"
#1613562737
0"
#1615098181
0!
#1638026237
1!
#1638026468
1"
#1639563131
0"
#1641098575
0!
#1664026643
1!
#1664026875
1"
#1665563537
0"
#1667098981
0!
#1690027037
1!
#1690027287
1"
#1691563925
0"
#1693099381
0!
#1716027481
1"
#1717563881
0"
#1742027881
1"
#1743564281
0"
#1768028281
1"
#1769564681
0"
#1794028681
1"
#1795565081
0"
#1820029081
1"
#1821565481
0"
#1846029481
1"
#1847565881
0"
#1872029881
1"
#1872030637
1!
#1873566281
0"
#1875102975
0!
#1898030243
1!
#1898030475
1"
#1899567137
0"
#1901102581
0!
#1924030637
1!
#1924030868
1"
#1925567531
0"
#1927102975
0!
#1950031043
1!
#1950031275
1"
#1951567937
0"
#1953103381
0!
#1976031437
1!
#1976031668
1"
#1977568331
0"
#1979103775
0!
#2002031843
1!
#2002032093
1"
#2003568731
0"
#2005104187
0!
#2028032287
1"
#2029568687
0"
#2054032687
1"
#2055569087
0"
#2080033087
1"
#2081569487
0"
#2106033487
1"
#2107569887
0"
#2132033887
1"
#2133570287
0"
#2158034287
1"
#2159570687
0"
#2184034687
1"
#2184035443
1!
#2185571087
0"
#2187107781
0!
#2210035037
1!
#2210035268
1"
#2211571931
0"
#2213107375
0!
#2236035443
1!
#2236035675
1"
#2237572337
0"
#2239107781
0!
#2262035837
1!
#2262036068
1"
#2263572731
0"
#2265108175
0!
#2288036243
1!
#2288036475
1"
#2289573137
0"
#2291108581
0!
#2314036637
1!
#2314036887
1"
#2315573525
0"
#2317108981
0!
#2340037081
1"
#2341573481
0"
#2366037481
1"
#2367573881
0"
#2392037881
1"
#2393574281
0"
#2418038281
1"
#2419574681
0"
#2444038681
1"
#2445575081
0"
#2470039081
1"
#2471575481
0"
#2496039481
1"
#2496040237
1!
#2497575881
0"
#2499112575
0!
#2522039843
1!
#2522040075
1"
#2523576737
0"
#2525112181
0!
#2548040237
1!
#2548040468
1"
#2549577131
0"
#2551112575
0!
#2574040643
1!
#2574040875
1"
#2575577537
0"
#2577112981
0!
#2600041037
1!
#2600041268
1"
#2601577931
0"
#2603113375
0!
#2626041443
1!
#2626041693
1"
#2627578331
0"
#2629113787
0!
#2652041887
1"
#2653578287
0"
#2678042287
1"
#2679578687
0"
#2704042687
1"
#2705579087
0"
#2730043087
1"
#2731579487
0"
#2756043487
1"
#2757579887
0"
#2782043887
1"
#2783580287
0"
#2808044287
1"
#2808045043
1!
#2809580687
0"
#2811117381
0!
#2834044637
1!
#2834044868
1"
#2835581531
0"
#2837116975
0!
#2860045043
1!
#2860045275
1"
#2861581937
0"
#2863117381
0!
#2886045437
1!
#2886045668
1"
#2887582331
0"
#2889117775
0!
#2912045843
1!
#2912046075
1"
#2913582737
0"
#2915118181
0!
#2938046237
1!
#2938046487
1"
#2939583125
0"
#2941118581
0!
#2964046681
1"
#2965583081
0"
#2990047081
1"
#2991583481
0"
#3016047481
1"
#3017583881
0"
#3042047881
1"
#3043584281
0"
#3068048281
1"
#3069584681
0"
#3094048681
1"
#3095585081
0"
#3120049081
1"
#3120049837
1!
#3121585481
0"
#3123122175
0!
#3146049443
1!
#3146049675
1"
#3147586337
0"
#3149121781
0!
#3172049837
1!
#3172050068
1"
#3173586731
0"
#3175122175
0!
#3198050243
1!
#3198050475
1"
#3199587137
0"
#3201122581
0!
#3224050637
1!
#3224050868
1"
#3225587531
0"
#3227122975
0!
#3250051043
1!
#3250051293
1"
#3251587931
0"
#3253123387
0!
#3276051487
1"
#3277587887
0"
#3302051887
1"
#3303588287
0"
#3328052287
1"
#3329588687
0"
#3354052687
1"
#3355589087
0"
#3380053087
1"
#3381589487
0"
#3406053487
1"
#3407589887
0"
#3432053887
1"
#3432054643
1!
#3433590287
0"
#3435126981
0!
#3458054237
1!
#3458054468
1"
#3459591131
0"
#3461126575
0!
#3484054643
1!
#3484054875
1"
#3485591537
0"
#3487126981
0!
#3510055037
1!
#3510055268
1"
#3511591931
0"
#3513127375
0!
#3536055443
1!
#3536055675
1"
#3537592337
0"
#3539127781
0!
#3562055837
1!
#3562056087
1"
#3563592725
0"
#3565128181
0!
#3588056281
1"
#3589592681
0"
#3614056681
1"
#3615593081
0"
#3640057081
1"
#3641593481
0"
#3666057481
1"
#3667593881
0"
#3692057881
1"
#3693594281
0"
#3718058281
1"
#3719594681
0"
#3744058681
1"
#3744059437
1!
#3745595081
0"
#3747131775
0!
#3770059043
1!
#3770059275
1"
#3771595937
0"
#3773131381
0!
#3796059437
1!
#3796059668
1"
#3797596331
0"
#3799131775
0!
#3822059843
1!
#3822060075
1"
#3823596737
0"
#3825132181
0!
#3848060237
1!
#3848060468
1"
#3849597131
0"
#3851132575
0!
#3874060643
1!
#3874060893
1"
#3875597531
0"
#3877132987
0!
#3900061087
1"
#3901597487
0"
#3926061487
1"
#3927597887
0"
#3952061887
1"
#3953598287
0"
#3978062287
1"
#3979598687
0"
#4004062687
1"
#4005599087
0"
#4030063087
1"
#4031599487
0"
#4056063487
1"
#4056064243
1!
#4057599887
0"
#4059136581
0!
#4082063837
1!
#4082064068
1"
#4083600731
0"
#4085136175
0!
#4108064243
1!
#4108064475
1"
#4109601137
0"
#4111136581
0!
#4134064637
1!
#4134064868
1"
#4135601531
0"
#4137136975
0!
#4160065043
1!
#4160065275
1"
#4161601937
0"
#4163137381
0!
#4186065437
1!
#4186065687
1"
#4187602325
0"
#4189137781
0!
#4212065881
1"
#4213602281
0"
#4238066281
1"
#4239602681
0"
#4264066681
1"
#4265603081
0"
#4290067081
1"
#4291603481
0"
#4316067481
1"
#4317603881
0"
#4342067881
1"
#4343604281
0"
#4368068281
1"
#4368069037
1!
#4369604681
0"
#4371141375
0!
#4394068643
1!
#4394068875
1"
#4395605537
0"
#4397140981
0!
#4420069037
1!
#4420069268
1"
#4421605931
0"
#4423141375
0!
#4446069443
1!
#4446069675
1"
#4447606337
0"
#4449141781
0!
#4472069837
1!
#4472070068
1"
#4473606731
0"
#4475142175
0!
#4498070243
1!
#4498070493
1"
#4499607131
0"
#4501142587
0!
#4524070687
1"
#4525607087
0"
#4550071087
1"
#4551607487
0"
#4576071487
1"
#4577607887
0"
#4602071887
1"
#4603608287
0"
#4628072287
1"
#4629608687
0"
